<?xml version="1.0" encoding="UTF-8"?>
<!-- Generator: Adobe Illustrator 18.1.1, SVG Export Plug-In . SVG Version: 6.00 Build 0)  -->
<svg version="1.1" id="Layer_1" xmlns="http://www.w3.org/2000/svg" xmlns:xlink="http://www.w3.org/1999/xlink" x="0px" y="0px" viewBox="293.5 383.5 25 25" enable-background="new 293.5 383.5 25 25" xml:space="preserve">
<path fill="#2BA6CB" d="M306,383.8c-6.8,0-12.2,5.5-12.2,12.2s5.5,12.2,12.2,12.2s12.2-5.5,12.2-12.2S312.8,383.8,306,383.8z   M309.4,392h-1.9c-0.2,0-0.5,0.3-0.5,0.7v1.4h2.4v2H307v6h-2.3v-6h-2.1v-2h2.1V393c0-1.7,1.2-3,2.8-3h1.9V392z"/>
</svg>